<?xml version="1.0" encoding="iso-8859-1"?>
<svg version="1.1" id="Layer_1" xmlns="http://www.w3.org/2000/svg" xmlns:xlink="http://www.w3.org/1999/xlink" x="0px" y="0px"
	 viewBox="0 0 415 90" enable-background="new 0 0 415 90" xml:space="preserve" style="transform: translateX(-93.7598px);">

                                <polygon id="flag" fill="#CB0916" points="0,52.34 77,90.34 77,39 0,0.34 "/>
	<g>
                                    <text transform="matrix(1 0 0 1 93.7598 77.8984)" fill="#CB0916"  class="flag__text">hey@pacosamino.com</text>
                                </g>
	<clipPath id="SVGID">
                                <rect id="SVGID_3_" x="76" y="39" width="339" height="51.34" fill="#CB0916"/>
                                </clipPath>
	<g class="clip" clip-path="url(#SVGID)">
                                    <rect x="76" y="39" width="339" height="51.34" fill="#CB0916"/>
		<text transform="matrix(1 0 0 1 93.7598 77.8984)" fill="#FFFFFF"  class="flag__text">hey@pacosamino.com</text>
                                   </g>
                                </svg>
